LAMMPS data file via write_data, version 22 Aug 2018, timestep = 20000

384 atoms
2 atom types
256 bonds
1 bond types
128 angles
1 angle types

0.0000000000000000e+00 1.7969000000000001e+01 xlo xhi
0.0000000000000000e+00 1.5561600000000000e+01 ylo yhi
0.0000000000000000e+00 1.4671620000000001e+01 zlo zhi

Masses

1 1.00794
2 15.9994

Pair Coeffs # lj/cut/tip4p/long

1 0 0
2 0.18521 3.1589

Bond Coeffs # harmonic

1 0 0.9572

Angle Coeffs # harmonic

1 0 104.52

Atoms # full

109 1 2 -1.1128000000000000e+00 3.8840602024698607e+00 5.1212285935096864e-02 1.1933878464249508e+01 0 0 -1
222 1 1 5.5640000000000001e-01 6.1631695106724482e-01 3.1849207834098694e+00 1.7794353072415807e+00 1 0 1
220 1 2 -1.1128000000000000e+00 1.4636775960763737e+00 2.8822256355270817e+00 2.1059148450340710e+00 1 0 1
31 1 2 -1.1128000000000000e+00 4.0555230397546103e+00 2.4392831046855599e+00 4.7674335658264599e+00 0 0 2
205 1 2 -1.1128000000000000e+00 3.4660382700519077e-01 6.5764645749112924e+00 1.0577226787988490e+00 0 1 0
348 1 1 5.5640000000000001e-01 7.6625536032194086e+00 5.3267048036411628e+00 1.7877503639907995e+00 1 -1 0
347 1 1 5.5640000000000001e-01 7.7422890624251179e+00 6.5359506023362668e+00 2.6950908449019750e+00 1 -1 0
75 1 1 5.5640000000000001e-01 4.6235499204758526e+00 4.7212582418600855e+00 5.1092758211510547e-01 0 1 -1
27 1 1 5.5640000000000001e-01 5.8460297300535036e+00 3.8306069453557510e+00 4.5297178656696362e+00 -1 0 1
346 1 2 -1.1128000000000000e+00 7.1942618313245132e+00 5.7784931723987532e+00 2.4897634013544994e+00 1 -1 0
72 1 1 5.5640000000000001e-01 1.0327786530587846e-01 3.4180569908744580e+00 1.2365173627361676e+01 0 2 1
136 1 2 -1.1128000000000000e+00 1.5247161509242539e+00 1.3928659598985107e+00 5.5638583236574792e+00 0 -1 -1
108 1 1 5.5640000000000001e-01 3.5215812866855760e+00 5.9408668030982517e+00 1.9985610340476059e+00 0 1 0
74 1 1 5.5640000000000001e-01 4.3884381467919482e+00 3.5234403610140776e+00 1.4063900162713381e+00 0 1 -1
298 1 2 -1.1128000000000000e+00 8.8414957246995858e+00 3.8089620148651160e+00 6.3546897800620066e+00 0 0 0
73 1 2 -1.1128000000000000e+00 3.9805749297840332e+00 4.3356235395562344e+00 1.1059924004577790e+00 0 1 -1
321 1 1 5.5640000000000001e-01 4.3796305837805658e+00 4.2258164493576613e+00 7.1994766920608635e+00 2 0 1
221 1 1 5.5640000000000001e-01 2.1025236846823812e+00 3.4570425651097412e+00 1.6843777766720442e+00 1 0 1
38 1 1 5.5640000000000001e-01 8.1153503398666214e+00 2.7137033836546260e+00 4.0989921658277737e+00 0 0 0
26 1 1 5.5640000000000001e-01 6.9853747682890610e+00 4.5652634905419509e+00 3.8558717904606858e+00 -1 0 1
383 1 1 5.5640000000000001e-01 1.8091113362674263e+00 1.1565669779380552e+00 1.0270445803155082e+01 0 0 1
320 1 1 5.5640000000000001e-01 4.1727113611722810e+00 3.8284372312414932e+00 5.7533890383629149e+00 2 0 1
71 1 1 5.5640000000000001e-01 1.0711417539573944e+00 2.5522107729066992e+00 1.1587067117503777e+01 0 2 1
319 1 2 -1.1128000000000000e+00 4.4257790501339418e+00 4.5675054731121678e+00 6.3065316746496096e+00 2 0 1
39 1 1 5.5640000000000001e-01 8.4799720955407967e+00 1.2457669279584564e+00 4.0348818006892655e+00 0 0 0
25 1 2 -1.1128000000000000e+00 6.7966797395178347e+00 3.8146431991106318e+00 4.4190728535095962e+00 -1 0 1
311 1 1 5.5640000000000001e-01 7.0553152135385100e-02 7.2922215528729213e+00 8.8066156002888789e+00 1 0 0
106 1 2 -1.1128000000000000e+00 3.2489373098155507e+00 6.6854042040570993e+00 2.5348098410511968e+00 0 1 0
107 1 1 5.5640000000000001e-01 2.3701207631384289e+00 6.8982804635209112e+00 2.2208074677803600e+00 0 1 0
81 1 1 5.5640000000000001e-01 7.1786309776886021e+00 7.3572411648696896e+00 5.0518443038112997e+00 1 1 1
138 1 1 5.5640000000000001e-01 7.4238503631258290e-01 1.9412522262727534e+00 5.5050111205465138e+00 0 -1 -1
141 1 1 5.5640000000000001e-01 3.1131749590907485e+00 6.4695663358297004e+00 4.4223296503847456e+00 0 -1 1
206 1 1 5.5640000000000001e-01 8.8271427018212889e-01 6.7423872243019156e+00 2.8229555672488987e-01 0 1 0
140 1 1 5.5640000000000001e-01 3.4265038403004047e+00 5.8768766719681524e+00 5.7796950076302176e+00 0 -1 1
357 1 1 5.5640000000000001e-01 5.3199432935699171e+00 2.0106578229416403e+00 2.1710878209254028e+00 0 0 0
137 1 1 5.5640000000000001e-01 1.5265003932498606e+00 8.8917182023879349e-01 4.7499044469543881e+00 0 -1 -1
157 1 2 -1.1128000000000000e+00 5.7628206298465550e+00 2.8265466326444787e-02 1.4521582457265973e+01 -1 0 -1
99 1 1 5.5640000000000001e-01 8.5065509590487292e+00 4.0413153040608982e+00 8.1038510374826505e+00 0 0 -1
355 1 2 -1.1128000000000000e+00 5.5887477330836042e+00 2.2819885186094631e+00 1.2933886208854037e+00 0 0 0
110 1 1 5.5640000000000001e-01 4.6246500937608621e+00 6.1671885792252135e-01 1.2152878830612364e+01 0 0 -1
364 1 2 -1.1128000000000000e+00 6.4218031244968428e+00 2.1293936546017975e+00 9.5639791473405555e+00 0 2 -1
59 1 1 5.5640000000000001e-01 8.3484466450798998e+00 1.5241226920478141e+00 1.2740032746972675e+01 -1 1 -1
213 1 1 5.5640000000000001e-01 3.8029148039279650e+00 4.3700473792193453e+00 9.1200740548152979e+00 1 0 -1
187 1 2 -1.1128000000000000e+00 6.6120549246254399e+00 6.2810549199518366e+00 6.7607002599294592e+00 1 2 1
53 1 1 5.5640000000000001e-01 4.6624581910643365e-01 6.1099830369591706e+00 2.7415927874774777e+00 0 1 1
335 1 1 5.5640000000000001e-01 8.6025721053988420e+00 3.0771869890907593e+00 4.5991484312156083e-01 1 -1 2
33 1 1 5.5640000000000001e-01 4.7000320436702827e+00 1.7450180817852479e+00 4.9046794547097390e+00 0 0 2
189 1 1 5.5640000000000001e-01 5.8761248437826810e+00 5.6983307978262738e+00 6.5734262326554749e+00 1 2 1
309 1 1 5.5640000000000001e-01 2.6507846473870647e+00 6.3671071129871200e+00 1.3286033222325672e+01 1 0 0
262 1 2 -1.1128000000000000e+00 3.5012322288501978e+00 6.2255713042306917e+00 9.7593223451612783e+00 1 -2 0
366 1 1 5.5640000000000001e-01 6.6610034787779293e+00 1.3875296076620867e+00 9.0084134994311551e+00 0 2 -1
291 1 1 5.5640000000000001e-01 2.5104395407701432e+00 4.4890516733917202e-01 8.6406152167519092e+00 0 -1 -1
158 1 1 5.5640000000000001e-01 6.1706882670281171e+00 3.0191687462561745e-01 1.3700004191831267e+01 -1 0 -1
97 1 2 -1.1128000000000000e+00 8.1417339159988380e+00 4.3165138925401871e+00 8.9449259710991260e+00 0 0 -1
54 1 1 5.5640000000000001e-01 1.6954562154031425e-01 6.1630424913074888e+00 4.2251861684092917e+00 0 1 1
188 1 1 5.5640000000000001e-01 7.0535731528262025e+00 5.8775043446340227e+00 7.5079892873741452e+00 1 2 1
269 1 1 5.5640000000000001e-01 3.8037995807584712e+00 4.4689974838053912e+00 1.2680738747718530e+01 0 2 -1
365 1 1 5.5640000000000001e-01 5.5999784163072590e+00 2.4513963606504827e+00 9.1936408458652430e+00 0 2 -1
290 1 1 5.5640000000000001e-01 2.1897108693505976e+00 1.4579603337119837e+00 7.5585627989601676e+00 0 -1 -1
271 1 2 -1.1128000000000000e+00 7.0177221024004499e+00 6.2332836778209755e+00 1.2011848221927957e+01 0 1 0
150 1 1 5.5640000000000001e-01 6.3694697419058315e+00 1.7299921126433691e+00 1.1454730217140909e+01 -1 1 -2
149 1 1 5.5640000000000001e-01 6.2982059762506157e+00 2.2524336521019483e+00 1.2873839824924454e+01 -1 1 -2
211 1 2 -1.1128000000000000e+00 4.1448756200119883e+00 3.5010579222369165e+00 8.9099493693225540e+00 1 0 -1
139 1 2 -1.1128000000000000e+00 3.0960861466073957e+00 6.6701785320714508e+00 5.3581154892888057e+00 0 -1 1
384 1 1 5.5640000000000001e-01 8.0685704848592255e-01 2.7472369309377409e-01 1.0984402894199338e+01 0 0 1
263 1 1 5.5640000000000001e-01 3.4634225130412566e+00 5.9224230162044895e+00 1.0666462733660477e+01 1 -2 0
167 1 1 5.5640000000000001e-01 6.0045045740132927e+00 4.4136322810834852e+00 1.2566780077065205e+01 2 2 1
147 1 1 5.5640000000000001e-01 6.6124506881626335e+00 6.7086768498992084e+00 5.5275131900208385e-01 1 0 0
70 1 2 -1.1128000000000000e+00 8.5534079205940206e-01 3.4656474757357336e+00 1.1774945538898677e+01 0 2 1
148 1 2 -1.1128000000000000e+00 6.4458756307264213e+00 1.4533984832428819e+00 1.2367906217078964e+01 -1 1 -2
13 1 2 -1.1128000000000000e+00 1.8122424163425175e+00 2.3074383038027077e-01 1.6632923458629010e+00 1 -1 1
168 1 1 5.5640000000000001e-01 6.3244308828142080e+00 4.0253160699724093e+00 1.3994630131494580e+01 2 2 1
356 1 1 5.5640000000000001e-01 5.5813346011168488e+00 1.4743278700936326e+00 7.7971437718721948e-01 0 0 0
264 1 1 5.5640000000000001e-01 2.6349861572174760e+00 6.5979420418013319e+00 9.5944258071114525e+00 1 -2 0
310 1 2 -1.1128000000000000e+00 5.2456859042501602e-01 7.1371629027094317e+00 9.6349023302217809e+00 1 0 0
212 1 1 5.5640000000000001e-01 3.3838218966405358e+00 2.9233556567159060e+00 8.9673007829628570e+00 1 0 -1
32 1 1 5.5640000000000001e-01 3.2331021481304689e+00 2.0703527457372779e+00 5.0895301027986433e+00 0 0 2
98 1 1 5.5640000000000001e-01 7.3861592617299312e+00 3.7440370186467504e+00 9.0776315743132727e+00 0 0 -1
270 1 1 5.5640000000000001e-01 2.3745464882425571e+00 4.4960838104737322e+00 1.2182344114326252e+01 0 2 -1
268 1 2 -1.1128000000000000e+00 3.1597532497688716e+00 5.0380759486089586e+00 1.2259329305094388e+01 0 2 -1
48 1 1 5.5640000000000001e-01 4.8557940321945976e+00 7.2609791988680703e+00 8.9419176953942898e+00 -1 0 -1
273 1 1 5.5640000000000001e-01 6.6803942174927782e+00 6.4785997670583990e+00 1.2873394946291530e+01 0 1 0
166 1 2 -1.1128000000000000e+00 5.7047779037346427e+00 3.8562583039538225e+00 1.3284923887693830e+01 2 2 1
299 1 1 5.5640000000000001e-01 8.1650125650465135e+00 4.0681054243872472e+00 5.7290320261125780e+00 0 0 0
111 1 1 5.5640000000000001e-01 3.1803986411259424e+00 6.5680314466183443e-01 1.1700741850369472e+01 0 0 -1
14 1 1 5.5640000000000001e-01 1.7230435609392416e+00 1.1825542149414860e+00 1.7115938869528675e+00 1 -1 1
289 1 2 -1.1128000000000000e+00 2.3188252386679600e+00 1.3766564494616469e+00 8.5035245410952331e+00 0 -1 -1
334 1 2 -1.1128000000000000e+00 7.7784654334661871e+00 3.5634962120013181e+00 4.8408555410537568e-01 1 -1 2
336 1 1 5.5640000000000001e-01 7.1694788326018948e+00 2.9812845960300560e+00 9.3839552551357719e-01 1 -1 2
145 1 2 -1.1128000000000000e+00 6.2177329919035564e+00 7.2016564364211595e+00 1.4505064776147000e+01 1 0 -1
236 1 1 5.5640000000000001e-01 8.9155248225559625e+00 7.2684122287424238e+00 1.2271296676724042e+01 1 -1 0
382 1 2 -1.1128000000000000e+00 1.4418773807290282e+00 9.7482830042936275e-01 1.1135513984543586e+01 0 0 1
307 1 2 -1.1128000000000000e+00 2.3373893873204037e+00 7.1403500534500557e+00 1.3755193003048227e+01 1 0 0
52 1 2 -1.1128000000000000e+00 4.6333792891654701e-01 5.5711160858819166e+00 3.5326970570495733e+00 0 1 1
325 1 2 -1.1128000000000000e+00 6.6536528376026665e+00 3.4988252000134323e-01 7.3981834495317278e+00 0 1 0
272 1 1 5.5640000000000001e-01 6.4653470664097030e+00 6.7108660539307676e+00 1.1392954351706818e+01 0 1 0
47 1 1 5.5640000000000001e-01 5.7348580773026843e+00 7.3232798397288672e+00 7.7109583465178968e+00 -1 0 -1
37 1 2 -1.1128000000000000e+00 8.8654856609449570e+00 2.1218742418994925e+00 4.0418327274382460e+00 0 0 0
131 1 1 5.5640000000000001e-01 1.0968748385182145e+00 9.2730971476464870e+00 4.3357252202527876e+00 0 -1 -1
21 1 1 5.5640000000000001e-01 8.8196968850643227e+00 1.3721936554385010e+01 6.2024027516411406e+00 0 -3 1
49 1 2 -1.1128000000000000e+00 4.7098880004966084e+00 1.3019091581315603e+01 4.3764641406342815e+00 1 0 0
50 1 1 5.5640000000000001e-01 5.3302355474602603e+00 1.2543664372040945e+01 3.8238609695378130e+00 1 0 0
255 1 1 5.5640000000000001e-01 6.6302508055917047e+00 1.0161091832589930e+01 6.4453636576744477e+00 0 -1 0
132 1 1 5.5640000000000001e-01 2.5444770919357600e+00 9.7107587185160202e+00 4.2664761714832258e+00 0 -1 -1
130 1 2 -1.1128000000000000e+00 1.6697639787710710e+00 9.9354089890222337e+00 3.9492340365562435e+00 0 -1 -1
249 1 1 5.5640000000000001e-01 1.2633608904205413e+00 1.0603104544928520e+01 2.2792928164415582e+00 2 0 1
165 1 1 5.5640000000000001e-01 7.4155244524594401e+00 1.4920375899604112e+01 4.1110327285409145e+00 0 0 1
219 1 1 5.5640000000000001e-01 7.4548882820890805e+00 1.0992136040640247e+01 2.5876667401647322e+00 0 1 0
142 1 2 -1.1128000000000000e+00 1.9557174619075857e+00 1.2462090643349475e+01 4.9000180817413828e+00 1 -1 1
295 1 2 -1.1128000000000000e+00 5.4214039860080003e+00 1.0846041851441019e+01 2.6234248708319785e+00 0 -2 2
51 1 1 5.5640000000000001e-01 3.8498066640497712e+00 1.2707330532190424e+01 4.0948622679192237e+00 1 0 0
297 1 1 5.5640000000000001e-01 5.1502308734426547e+00 1.0305148160149178e+01 3.3651334101128252e+00 0 -2 2
296 1 1 5.5640000000000001e-01 5.2963768699449014e+00 1.0284427028479728e+01 1.8584450006963347e+00 0 -2 2
217 1 2 -1.1128000000000000e+00 8.3610827257292915e+00 1.1292304555928212e+01 2.6579685488951545e+00 0 1 0
253 1 2 -1.1128000000000000e+00 7.5705940237753300e+00 1.0135682895816219e+01 6.6223978222753788e+00 0 -1 0
254 1 1 5.5640000000000001e-01 7.9126494574171993e+00 9.4846942530322504e+00 6.0096623435647123e+00 0 -1 0
333 1 1 5.5640000000000001e-01 8.5202099417656765e+00 1.1948717267411688e+01 4.4289560304661517e+00 1 0 1
218 1 1 5.5640000000000001e-01 8.3730498799114468e+00 1.2129929965927046e+01 2.1948570004620467e+00 0 1 0
369 1 1 5.5640000000000001e-01 3.7477145861300007e+00 1.4673514197210556e+01 1.3842468472148020e+01 0 1 -1
230 1 1 5.5640000000000001e-01 4.0008780758698288e+00 8.3975893503872285e+00 5.0106481678178811e+00 1 -1 0
233 1 1 5.5640000000000001e-01 4.9424650247812032e+00 1.2065294590819303e+01 5.7731404809645062e+00 0 -1 -1
281 1 1 5.5640000000000001e-01 8.6013850571535446e+00 1.0781489977338062e+01 8.1944533431294104e+00 0 1 -2
339 1 1 5.5640000000000001e-01 4.9965333304028468e+00 1.4892063380000090e+01 4.6693002231885545e+00 0 -1 -1
338 1 1 5.5640000000000001e-01 5.8614852534305388e+00 1.5478261071532444e+01 5.7648044620331715e+00 0 -1 -1
214 1 2 -1.1128000000000000e+00 2.5461460332977154e-01 1.3044392612111826e+01 9.0165362022144837e+00 1 -1 -1
4 1 2 -1.1128000000000000e+00 4.1708311852855102e+00 8.6332183550554014e+00 9.2389033938814102e-01 1 0 1
164 1 1 5.5640000000000001e-01 8.2789081133227054e+00 1.4802290644281760e+01 2.8730813662551062e+00 0 0 1
315 1 1 5.5640000000000001e-01 8.7925217578232449e+00 1.3682630524789532e+01 9.9426122600683726e+00 0 -1 2
80 1 1 5.5640000000000001e-01 6.4781838615262695e+00 8.6406993826897676e+00 4.6594092959178521e+00 1 1 1
229 1 2 -1.1128000000000000e+00 4.2993350569728230e+00 9.2745654438702516e+00 4.7696740103032100e+00 1 -1 0
231 1 1 5.5640000000000001e-01 4.2241539115482123e+00 9.7838344742329433e+00 5.5766590187359411e+00 1 -1 0
153 1 1 5.5640000000000001e-01 5.2635011025156231e-01 1.4034856094806253e+01 4.3156466134608999e+00 -1 -2 -1
332 1 1 5.5640000000000001e-01 8.4573936071612685e+00 1.1640916690576155e+01 5.9099048338068041e+00 1 0 1
367 1 2 -1.1128000000000000e+00 3.1352142774931093e+00 1.4078027073551034e+01 1.4274290634885224e+01 0 1 -1
116 1 1 5.5640000000000001e-01 4.2892124644840131e+00 1.1034461731799228e+01 1.3489695042503650e+01 1 0 -1
6 1 1 5.5640000000000001e-01 3.5956764537154791e+00 8.5521408865673738e+00 1.6306441274205066e-01 1 0 1
248 1 1 5.5640000000000001e-01 9.0018045054795215e-01 1.2039446819279116e+01 1.9679744499160476e+00 2 0 1
305 1 1 5.5640000000000001e-01 3.5547014894567051e+00 8.8227466315645504e+00 7.6737267929468622e+00 1 0 0
232 1 2 -1.1128000000000000e+00 4.9878545664834837e+00 1.1386034236196107e+01 6.4460277581087810e+00 0 -1 -1
117 1 1 5.5640000000000001e-01 3.9503382088405510e+00 1.2395693714155181e+01 1.4059000035321480e+01 1 0 -1
151 1 2 -1.1128000000000000e+00 3.2122618771028677e-01 1.4769381597072416e+01 3.7371751462165728e+00 -1 -2 -1
234 1 1 5.5640000000000001e-01 4.1453115121316317e+00 1.1438533135794344e+01 6.8972465918081056e+00 0 -1 -1
368 1 1 5.5640000000000001e-01 2.9278248971714746e+00 1.4507432175092912e+01 4.3263088965537910e-01 0 1 0
115 1 2 -1.1128000000000000e+00 4.6800982526460029e+00 1.1790257849912649e+01 1.3928115354427041e+01 1 0 -1
128 1 1 5.5640000000000001e-01 1.2126690696950584e+00 1.1688259891552095e+01 1.4305983376823882e+01 0 0 0
34 1 2 -1.1128000000000000e+00 7.7387696740265115e+00 1.2899702376754705e+01 1.1156613294998863e+01 0 -1 -2
19 1 2 -1.1128000000000000e+00 8.8788548044585269e+00 1.4566033190174725e+01 6.6498770005533014e+00 0 -3 1
226 1 2 -1.1128000000000000e+00 8.5625867920487622e+00 1.3599387160055970e+01 1.3504540707305324e+00 0 0 0
46 1 2 -1.1128000000000000e+00 5.1996644419732894e+00 7.8688238215471955e+00 8.2873103960832122e+00 -1 0 -1
304 1 2 -1.1128000000000000e+00 2.6463020191237479e+00 8.8592714640379224e+00 7.3742129774062271e+00 1 0 0
169 1 2 -1.1128000000000000e+00 5.5570617692353856e+00 1.3672944126672437e+01 8.1968583767999785e+00 0 0 0
144 1 1 5.5640000000000001e-01 1.6037241865694385e+00 1.1695033066936761e+01 4.4484029704558470e+00 1 -1 1
247 1 2 -1.1128000000000000e+00 8.8137427972111204e-01 1.1156731553186514e+01 1.5982517076431519e+00 2 0 1
5 1 1 5.5640000000000001e-01 3.7745922000178971e+00 8.0665045123894501e+00 1.5857528522228965e+00 1 0 1
143 1 1 5.5640000000000001e-01 1.8879302644034390e+00 1.2245218040730331e+01 5.8298588018895687e+00 1 -1 1
123 1 1 5.5640000000000001e-01 7.2820475401224707e+00 1.3178971507554232e+01 1.2867098851184716e+01 0 0 1
79 1 2 -1.1128000000000000e+00 7.3315449883620403e+00 8.2075464577342352e+00 4.6397393761396852e+00 1 1 1
3 1 1 5.5640000000000001e-01 1.8429198023861575e+00 1.2169574085700958e+01 8.2543358605744910e+00 0 -1 0
1 1 2 -1.1128000000000000e+00 2.5939615784003616e+00 1.1743595267330225e+01 7.8411644823461577e+00 0 -1 0
159 1 1 5.5640000000000001e-01 5.7342121661688426e+00 1.4634550505329285e+01 1.4468786728228851e+01 -1 -1 -1
42 1 1 5.5640000000000001e-01 5.9422494823817820e+00 1.0205597811497629e+01 9.0774957175949353e+00 2 0 0
35 1 1 5.5640000000000001e-01 6.9306454372221271e+00 1.2678677559197244e+01 1.0693671220541230e+01 0 -1 -2
122 1 1 5.5640000000000001e-01 6.2073730079403200e+00 1.2618528188683685e+01 1.3774223105400377e+01 0 0 1
121 1 2 -1.1128000000000000e+00 7.0215309108078010e+00 1.3121749097879441e+01 1.3786386072878873e+01 0 0 1
344 1 1 5.5640000000000001e-01 2.3390682518024417e+00 1.4020207219868846e+01 9.5846847742071777e+00 0 0 0
40 1 2 -1.1128000000000000e+00 5.8438849651504983e+00 1.1042033552763531e+01 9.5323943930172756e+00 2 0 0
331 1 2 -1.1128000000000000e+00 8.7531082634655224e+00 1.2304408330489254e+01 5.2865548479065341e+00 1 0 1
208 1 2 -1.1128000000000000e+00 3.2808053590402180e+00 9.8627584252572262e+00 1.2610182845943655e+01 0 -2 0
327 1 1 5.5640000000000001e-01 7.4475253544721944e+00 1.5534245865957329e+01 7.0191173706823795e+00 0 0 0
127 1 2 -1.1128000000000000e+00 1.6078775534023371e+00 1.1859037472373927e+01 1.3451069481509762e+01 0 0 0
45 1 1 5.5640000000000001e-01 4.9747203263728318e-01 1.4911176057445509e+01 5.7045029348127874e-01 1 1 -1
209 1 1 5.5640000000000001e-01 2.6954238767182908e+00 1.0546603701240537e+01 1.2935630893550700e+01 0 -2 0
2 1 1 5.5640000000000001e-01 2.3235719099821117e+00 1.0831667742949824e+01 7.7338780962120230e+00 0 -1 0
41 1 1 5.5640000000000001e-01 5.7114236239068195e+00 1.1681634288687079e+01 8.8326816918128461e+00 2 0 0
326 1 1 5.5640000000000001e-01 6.2276130726584400e+00 1.5178060965756126e+01 7.8418219319599105e+00 0 0 0
163 1 2 -1.1128000000000000e+00 8.3163663204938523e+00 1.5022295579549120e+01 3.8039031099871630e+00 0 0 1
171 1 1 5.5640000000000001e-01 5.2554145269917223e+00 1.3297271866405392e+01 7.3697480001621463e+00 0 0 0
129 1 1 5.5640000000000001e-01 1.8372466205339593e+00 1.2788070058022045e+01 1.3473984943787363e+01 0 0 0
308 1 1 5.5640000000000001e-01 2.3113303966909391e+00 7.8295756063141404e+00 1.3091472990007556e+01 1 0 0
343 1 2 -1.1128000000000000e+00 3.1932836470792965e+00 1.4451409358756271e+01 9.6094598195749317e+00 0 0 0
210 1 1 5.5640000000000001e-01 3.5114101119973715e+00 1.0145404265232806e+01 1.1725216172743151e+01 0 -2 0
227 1 1 5.5640000000000001e-01 8.1089551991139661e+00 1.3392492506225764e+01 5.3335851469219675e-01 0 0 0
306 1 1 5.5640000000000001e-01 2.5800784100189262e+00 8.1609242682530621e+00 6.7229391320252176e+00 1 0 0
36 1 1 5.5640000000000001e-01 8.1712406040781786e+00 1.2057862121115068e+01 1.1299813170915531e+01 0 -1 -2
345 1 1 5.5640000000000001e-01 3.4440837110971030e+00 1.4434239476471390e+01 1.0533059495525652e+01 0 0 0
170 1 1 5.5640000000000001e-01 4.7554992221117702e+00 1.3827632488358226e+01 8.6966609315165080e+00 0 0 0
146 1 1 5.5640000000000001e-01 5.6660288527582141e+00 7.8545244228729496e+00 2.6427921137960869e-01 1 0 0
15 1 1 5.5640000000000001e-01 1.2095528879458797e+00 1.5460738809362502e+01 2.3289017424695730e+00 1 -2 1
337 1 2 -1.1128000000000000e+00 5.6719892979810780e+00 1.5551128272476397e+01 4.8293821340331853e+00 0 -1 -1
202 1 2 -1.1128000000000000e+00 1.3244920927320626e+01 8.8327693463546020e-01 4.4293142145516518e+00 0 -1 0
135 1 1 5.5640000000000001e-01 1.5446266007131282e+01 1.7488957155221604e-01 1.0205764790356154e+01 0 0 0
10 1 2 -1.1128000000000000e+00 1.0645944931945621e+01 5.0612534052723896e+00 2.6432837066661183e+00 -1 0 1
276 1 1 5.5640000000000001e-01 1.2374037505118180e+01 4.8623751245069533e+00 3.7635169106776774e+00 0 1 0
203 1 1 5.5640000000000001e-01 1.3770285458419787e+01 1.5752091280945590e+00 4.0275010511749327e+00 0 -1 0
317 1 1 5.5640000000000001e-01 1.7782729256256367e+01 3.6023618522879377e+00 4.3909219256317202e+00 -1 1 2
113 1 1 5.5640000000000001e-01 1.5485325275603511e+01 6.4306447111535947e+00 2.0525387535346913e+00 0 0 0
112 1 2 -1.1128000000000000e+00 1.5546090960359193e+01 5.9636464862845511e+00 1.2192008484135555e+00 0 0 0
114 1 1 5.5640000000000001e-01 1.5987433829858885e+01 5.1423871031874535e+00 1.4359548803152491e+00 0 0 0
126 1 1 5.5640000000000001e-01 1.6902491707931283e+01 3.1715530304308914e+00 2.7596679551140352e-01 -1 0 -1
124 1 2 -1.1128000000000000e+00 1.6938805226074752e+01 3.2980313102909906e+00 1.2240799456156859e+00 -1 0 -1
11 1 1 5.5640000000000001e-01 1.0193849730304201e+01 4.2191299756131393e+00 2.6949614192617459e+00 -1 0 1
56 1 1 5.5640000000000001e-01 1.5214120268339999e+01 1.1969276224836287e+00 2.2872262267810513e+00 0 1 1
133 1 2 -1.1128000000000000e+00 1.4920627728870695e+01 8.6748412617751611e-02 9.4106751697291742e+00 0 0 0
195 1 1 5.5640000000000001e-01 9.4038975919707060e+00 3.8500827983578412e+00 1.0095956350661286e+01 0 0 -2
302 1 1 5.5640000000000001e-01 1.5885935920499241e+01 6.4240674854298438e+00 1.3037751304110094e+01 0 2 0
125 1 1 5.5640000000000001e-01 1.6129794815851980e+01 2.9036531207114487e+00 1.5499635160940077e+00 -1 0 -1
12 1 1 5.5640000000000001e-01 1.0647585347118410e+01 5.3883573174051866e+00 3.5428574585287613e+00 -1 0 1
199 1 2 -1.1128000000000000e+00 9.9683685895815550e+00 6.4726294643006934e+00 5.0748254446211289e+00 0 0 -2
250 1 2 -1.1128000000000000e+00 1.5990701206735196e+01 6.0830966370067663e-01 5.0299735501570373e+00 -1 -1 1
162 1 1 5.5640000000000001e-01 1.2574588092845703e+01 7.1945626454923683e+00 6.8217336494327592e+00 -1 -1 1
242 1 1 5.5640000000000001e-01 1.2123939938152953e+01 1.8397767823385089e-01 5.5663421426554125e+00 -1 0 -1
374 1 1 5.5640000000000001e-01 1.0358862953558321e+01 1.0061929000901657e+00 3.3511176242113812e+00 1 2 0
55 1 2 -1.1128000000000000e+00 1.4793779724475360e+01 2.0439144065330903e+00 2.4360856427783588e+00 0 1 1
204 1 1 5.5640000000000001e-01 1.2640717073041374e+01 6.0933760031143092e-01 3.7392946176901800e+00 0 -1 0
243 1 1 5.5640000000000001e-01 1.1642847997218905e+01 7.2054418104838736e-01 6.8977109848771931e+00 -1 0 -1
341 1 1 5.5640000000000001e-01 1.2193032886499829e+01 6.6463175540936055e+00 9.2210419233238525e+00 1 -1 1
178 1 2 -1.1128000000000000e+00 1.4139281003757928e+01 4.4659362676058532e+00 7.0154648014488563e+00 0 1 -1
359 1 1 5.5640000000000001e-01 1.5968356117628685e+01 4.4491731865629198e+00 7.3332132745699798e+00 0 0 0
180 1 1 5.5640000000000001e-01 1.3680962490269481e+01 4.3117517956514000e+00 6.1893871434875258e+00 0 1 -1
252 1 1 5.5640000000000001e-01 1.6150792426518763e+01 1.5105152147986740e+00 4.7531561815095671e+00 -1 -1 1
267 1 1 5.5640000000000001e-01 1.3766183835137493e+01 6.5104156393192376e+00 8.8682704672828516e-01 -1 0 1
358 1 2 -1.1128000000000000e+00 1.6844741009266073e+01 4.7624020343358788e+00 7.5569776354888685e+00 0 0 0
179 1 1 5.5640000000000001e-01 1.3537536774523220e+01 4.1452561348497632e+00 7.6872546207223404e+00 0 1 -1
275 1 1 5.5640000000000001e-01 1.2605671362275348e+01 5.5031415753613615e+00 5.1154269030149413e+00 0 1 0
174 1 1 5.5640000000000001e-01 1.2996359820750444e+01 9.3305625926924363e-01 8.8146686235423193e+00 0 0 -1
160 1 2 -1.1128000000000000e+00 1.2479861846305033e+01 7.4063162642763567e+00 5.8930674635216889e+00 -1 -1 1
251 1 1 5.5640000000000001e-01 1.5039516271988562e+01 5.5006960204896282e-01 5.1199064119259798e+00 -1 -1 1
322 1 2 -1.1128000000000000e+00 9.9650035592853303e+00 6.9207269604722645e+00 7.7338830195071273e-01 1 -1 1
342 1 1 5.5640000000000001e-01 1.3601713446085448e+01 6.4650537572294455e+00 8.6969631372590950e+00 1 -1 1
57 1 1 5.5640000000000001e-01 1.4291880286682623e+01 2.2064211346882510e+00 1.6373862974418967e+00 0 1 1
64 1 2 -1.1128000000000000e+00 1.4787003640251475e+01 7.0378284654820451e+00 3.4982621388472510e+00 0 0 0
274 1 2 -1.1128000000000000e+00 1.2894928454542526e+01 4.7776192324700819e+00 4.5620915279709049e+00 0 1 0
300 1 1 5.5640000000000001e-01 9.1475437863104982e+00 2.9587950181856653e+00 6.0388052382176518e+00 0 0 0
190 1 2 -1.1128000000000000e+00 1.2904130289267240e+01 5.0049217478896377e+00 1.3026189964960867e+01 -3 1 1
60 1 1 5.5640000000000001e-01 9.4761638724249302e+00 2.4115789233980598e+00 1.2257776925910337e+01 -1 1 -1
294 1 1 5.5640000000000001e-01 1.3141327719817589e+01 3.6483735550214806e+00 1.4390169561575648e+01 0 0 -3
292 1 2 -1.1128000000000000e+00 1.3266139814154482e+01 2.7839212941302351e+00 1.1018341754470558e-01 0 0 -2
373 1 2 -1.1128000000000000e+00 1.1023675525883130e+01 7.1337135923009665e-01 2.7278105548980198e+00 1 2 0
293 1 1 5.5640000000000001e-01 1.3331038390696099e+01 2.1890793241700721e+00 1.4034686377558980e+01 0 0 -3
58 1 2 -1.1128000000000000e+00 9.2962542623725088e+00 1.6436358562174378e+00 1.2800112818790396e+01 -1 1 -1
380 1 1 5.5640000000000001e-01 1.2486030772153605e+01 1.2309467689717975e-01 1.1841441752733754e+01 0 1 -1
379 1 2 -1.1128000000000000e+00 1.3185968620583663e+01 4.0204378533266993e-01 1.2431786911613727e+01 0 1 -1
194 1 1 5.5640000000000001e-01 1.0395712220038670e+01 2.7623852520242109e+00 1.0449671321815346e+01 0 0 -2
186 1 1 5.5640000000000001e-01 1.0031276513231992e+01 1.9456352018272998e+00 1.4283697803356683e+01 0 -1 0
23 1 1 5.5640000000000001e-01 1.6098985320448016e+01 3.2972938846499944e+00 1.2956220213480870e+01 0 0 -1
22 1 2 -1.1128000000000000e+00 1.6678077168151532e+01 2.6639314366164402e+00 1.3380173611355174e+01 0 0 -1
192 1 1 5.5640000000000001e-01 1.2985997728991281e+01 5.5983871233563454e+00 1.3772734407629269e+01 -3 1 1
318 1 1 5.5640000000000001e-01 1.7094933116108251e+01 3.8175701362832530e+00 5.7222814942882749e+00 -1 1 2
24 1 1 5.5640000000000001e-01 1.6582304320664189e+01 1.8658141570703384e+00 1.2860492686797990e+01 0 0 -1
200 1 1 5.5640000000000001e-01 9.7819441033114547e+00 5.8997610132677654e+00 5.8186672466113327e+00 0 0 -2
375 1 1 5.5640000000000001e-01 1.0815290151396219e+01 1.1793686362764695e+00 1.9180858840080359e+00 1 2 0
266 1 1 5.5640000000000001e-01 1.2401913954693621e+01 7.1269990501971421e+00 6.6212168845986075e-01 -1 0 1
360 1 1 5.5640000000000001e-01 1.7138740794958885e+01 4.1755095904245225e+00 8.2536514056422234e+00 0 0 0
69 1 1 5.5640000000000001e-01 1.5471545779229412e+01 6.1560313207317936e+00 1.1077654613033127e+01 -1 1 0
301 1 2 -1.1128000000000000e+00 1.5539453925785628e+01 5.5770610768758466e+00 1.2757103724950390e+01 0 2 0
191 1 1 5.5640000000000001e-01 1.2354689658169308e+01 5.4789072541521158e+00 1.2401942534008967e+01 -3 1 1
193 1 2 -1.1128000000000000e+00 1.0051967338753444e+01 3.6018581474608582e+00 1.0755215152679389e+01 0 0 -2
86 1 1 5.5640000000000001e-01 1.0120151772982622e+01 4.9421277930422136e-01 1.1691159700856112e+01 0 0 -1
303 1 1 5.5640000000000001e-01 1.4639994021791274e+01 5.5653717350888154e+00 1.3084315903657501e+01 0 2 0
96 1 1 5.5640000000000001e-01 1.0827037107451378e+01 6.7337816363423100e+00 1.1456866078379395e+01 -1 0 1
173 1 1 5.5640000000000001e-01 1.1700139057631807e+01 8.0269207416189703e-01 9.5858449777323589e+00 0 0 -1
7 1 2 -1.1128000000000000e+00 1.6140757480306380e+01 2.9599068933662109e-01 1.1951974944667711e+01 0 0 -1
67 1 2 -1.1128000000000000e+00 1.5387495743477507e+01 6.5657955664136107e+00 1.0216689625395110e+01 -1 1 0
185 1 1 5.5640000000000001e-01 1.1185866047628270e+01 2.5495282620622888e+00 3.8287798075655999e-01 0 -1 1
184 1 2 -1.1128000000000000e+00 1.0282733444006878e+01 2.2490641707061907e+00 4.8439224627091620e-01 0 -1 1
324 1 1 5.5640000000000001e-01 1.0199670160645690e+01 6.1817503710825008e+00 1.3347073563432195e+00 1 -1 1
66 1 1 5.5640000000000001e-01 1.4482928392798359e+01 6.3404633211382135e+00 4.0791685066457744e+00 0 0 0
8 1 1 5.5640000000000001e-01 1.5259308042897576e+01 1.6878338444533061e-01 1.2302831122304495e+01 0 0 -1
94 1 2 -1.1128000000000000e+00 1.1331453984129137e+01 6.0839988580366038e+00 1.0967397754161306e+01 -1 0 1
378 1 1 5.5640000000000001e-01 1.6473032666686738e+01 6.6228173714251790e+00 7.4690526392148398e+00 -1 1 1
340 1 2 -1.1128000000000000e+00 1.2760503036561245e+01 6.8685116190088911e+00 8.4829094385436221e+00 1 -1 1
95 1 1 5.5640000000000001e-01 1.0798318619672774e+01 5.2898113178562900e+00 1.1002970006467729e+01 -1 0 1
172 1 2 -1.1128000000000000e+00 1.2049662302466624e+01 1.0450466135127319e+00 8.7283312625196263e+00 0 0 -1
68 1 1 5.5640000000000001e-01 1.5424367849396788e+01 7.5057733800751318e+00 1.0393647363892654e+01 -1 1 0
376 1 2 -1.1128000000000000e+00 1.6736438044764810e+01 7.5406005599286301e+00 7.5363108461239063e+00 -1 1 1
323 1 1 5.5640000000000001e-01 9.7218269119694867e+00 7.6174489476586880e+00 1.3830416439588022e+00 1 -1 1
207 1 1 5.5640000000000001e-01 1.7420353254679370e+01 6.5220221106306751e+00 7.2336414249799419e-01 -1 1 0
90 1 1 5.5640000000000001e-01 1.6853841794815104e+01 9.1219639766534813e-02 6.7690384257862810e+00 -1 1 -1
241 1 2 -1.1128000000000000e+00 1.1450018339987517e+01 5.8003620255651624e-02 6.2343191818510650e+00 -1 0 -1
237 1 1 5.5640000000000001e-01 9.6546391410199508e+00 7.2806709643284604e+00 1.3592454189432063e+01 1 -1 0
316 1 2 -1.1128000000000000e+00 1.7449462477448446e+01 3.1325762859388075e+00 5.1554264026380068e+00 -1 1 2
265 1 2 -1.1128000000000000e+00 1.3150139051406368e+01 6.7540983754043680e+00 1.9592790911231078e-01 -1 0 1
201 1 1 5.5640000000000001e-01 1.0573591276451555e+01 7.1277871910864823e+00 5.4222532737126334e+00 0 0 -2
85 1 2 -1.1128000000000000e+00 1.0749492174866248e+01 2.0874822974065665e-01 1.1028835878824292e+01 0 0 -1
235 1 2 -1.1128000000000000e+00 9.6496862581271419e+00 7.6833863842034855e+00 1.2724106334680187e+01 1 -1 0
312 1 1 5.5640000000000001e-01 1.7882516213820814e+01 6.6086458759069373e+00 1.0148241376617847e+01 0 0 0
134 1 1 5.5640000000000001e-01 1.5561062083289617e+01 7.7934718646984535e-02 8.6993395967436822e+00 0 0 0
228 1 1 5.5640000000000001e-01 9.4363083485824806e+00 1.3223893495099921e+01 1.2416008215427525e+00 0 0 0
175 1 2 -1.1128000000000000e+00 1.3872555602034122e+01 1.1471829083596500e+01 6.9827272723119655e+00 0 2 0
63 1 1 5.5640000000000001e-01 1.3040371397939730e+01 1.0640519991525403e+01 2.5137601128963025e+00 -1 0 0
370 1 2 -1.1128000000000000e+00 1.4406698975060525e+01 9.0922294068936118e+00 5.3636107225963405e+00 -2 0 0
372 1 1 5.5640000000000001e-01 1.4944972760796457e+01 9.5624208643724931e+00 4.7268895093328869e+00 -2 0 0
286 1 2 -1.1128000000000000e+00 1.0644138770878488e+01 9.6077318600153703e+00 6.2769007693251373e+00 0 0 0
105 1 1 5.5640000000000001e-01 1.7123251205546964e+01 8.4608278077205519e+00 4.5856005634577652e+00 -1 0 -1
371 1 1 5.5640000000000001e-01 1.4058280508850290e+01 9.7764804620313033e+00 5.9351329866161553e+00 -2 0 0
377 1 1 5.5640000000000001e-01 1.5919535759307410e+01 8.0317622222216354e+00 7.4487725194226826e+00 -1 1 1
89 1 1 5.5640000000000001e-01 1.6657752122450241e+01 1.4177077602524831e+01 7.0440490043139423e+00 -1 0 -1
62 1 1 5.5640000000000001e-01 1.2696994458099187e+01 1.1679142822287488e+01 1.4672176864598028e+00 -1 0 0
65 1 1 5.5640000000000001e-01 1.4544707313891163e+01 7.8473925410836420e+00 3.9478517912551290e+00 0 0 0
283 1 2 -1.1128000000000000e+00 1.1771870320106212e+01 1.0422931080831995e+01 3.7224561210593543e+00 0 0 1
17 1 1 5.5640000000000001e-01 1.5919797207039178e+01 1.0865348219140067e+01 3.3947908544363341e+00 -1 -1 1
88 1 2 -1.1128000000000000e+00 1.6869815298700470e+01 1.5005552831172940e+01 7.4740372968030373e+00 -1 0 -1
100 1 2 -1.1128000000000000e+00 1.1746306170029326e+01 1.3354031514791357e+01 7.8918515144193053e+00 0 -1 -1
261 1 1 5.5640000000000001e-01 1.5156508514961223e+01 1.4464960909735350e+01 2.1803381379884179e+00 0 0 0
161 1 1 5.5640000000000001e-01 1.3109874997391286e+01 8.1109651594564323e+00 5.7421180220154842e+00 -1 -1 1
61 1 2 -1.1128000000000000e+00 1.3438543478743771e+01 1.1231969779003133e+01 1.8751065999341474e+00 -1 0 0
44 1 1 5.5640000000000001e-01 1.7690653716879947e+01 1.4135603454027111e+01 1.4198762683553214e+01 0 1 -2
285 1 1 5.5640000000000001e-01 1.1586905318827039e+01 1.1342149276805676e+01 3.5299453095303690e+00 0 0 1
288 1 1 5.5640000000000001e-01 1.1219481700367247e+01 8.8621962006325408e+00 6.4483357747978509e+00 0 0 0
363 1 1 5.5640000000000001e-01 1.3749300248495077e+01 1.4937828111596611e+01 4.0175259517808143e-01 0 1 1
30 1 1 5.5640000000000001e-01 1.6170665963949421e+01 1.2945032978939217e+01 1.3402953754251850e+01 -1 -1 1
120 1 1 5.5640000000000001e-01 1.0300891403831617e+01 1.3411744049792460e+01 3.9482002407715275e+00 0 -1 -1
93 1 1 5.5640000000000001e-01 1.4357255898758446e+01 1.3303905050589202e+01 4.2152721836001446e+00 -1 1 0
43 1 2 -1.1128000000000000e+00 1.7690661795541214e+01 1.4362069330856171e+01 4.5716741404949046e-01 0 1 -1
84 1 1 5.5640000000000001e-01 1.5530479420145847e+01 1.2375108056130145e+01 6.5970322889831117e+00 -2 -1 1
280 1 2 -1.1128000000000000e+00 9.4669746668292269e+00 1.0598245024734865e+01 8.5597042408767710e+00 0 1 -2
82 1 2 -1.1128000000000000e+00 1.6297745318308507e+01 1.2621445852995111e+01 6.0804543385158158e+00 -2 -1 1
16 1 2 -1.1128000000000000e+00 1.6098306382412353e+01 9.9249454897320568e+00 3.3917564723885292e+00 -1 -1 1
284 1 1 5.5640000000000001e-01 1.1260070079840657e+01 9.9349381443808262e+00 3.0773540550876537e+00 0 0 1
101 1 1 5.5640000000000001e-01 1.1094048328248011e+01 1.3424546812619774e+01 8.5888602682967505e+00 0 -1 -1
102 1 1 5.5640000000000001e-01 1.1774757632166301e+01 1.4227142195997983e+01 7.5005711337860497e+00 0 -1 -1
176 1 1 5.5640000000000001e-01 1.3073695070106268e+01 1.1960264478649979e+01 7.1814374951611359e+00 0 2 0
92 1 1 5.5640000000000001e-01 1.4378342283947763e+01 1.2370253159817800e+01 3.0237412194599926e+00 -1 1 0
155 1 1 5.5640000000000001e-01 1.6412219512269488e+01 8.8542038185251748e+00 1.1389848699142700e+01 -1 -1 -1
177 1 1 5.5640000000000001e-01 1.3886527447846294e+01 1.0762816102125402e+01 7.6256405933523581e+00 0 2 0
246 1 1 5.5640000000000001e-01 1.4512646093944657e+01 1.1676694666703971e+01 2.3473975050397217e-01 -1 1 0
256 1 2 -1.1128000000000000e+00 1.6743259107908884e+01 9.6888441397544085e+00 7.9190049158909681e-01 0 0 2
287 1 1 5.5640000000000001e-01 1.1034671036939031e+01 1.0042977084442976e+01 5.5190887150090049e+00 0 0 0
260 1 1 5.5640000000000001e-01 1.6175482912112287e+01 1.4791030268426743e+01 1.1092328722664584e+00 0 0 0
244 1 2 -1.1128000000000000e+00 1.5063927648082865e+01 1.1350457338130379e+01 1.4195099961625598e+01 -1 1 -1
118 1 2 -1.1128000000000000e+00 1.1065525486172627e+01 1.3456533691413910e+01 3.3741265500356583e+00 0 -1 -1
362 1 1 5.5640000000000001e-01 1.2363087013266638e+01 1.5066794947925690e+01 9.9645924017081233e-01 0 1 1
104 1 1 5.5640000000000001e-01 1.7595072498474039e+01 7.9593179857435894e+00 5.9338467989900670e+00 -1 0 -1
282 1 1 5.5640000000000001e-01 9.9806422867049580e+00 1.0286149973532662e+01 7.8147382225176827e+00 0 1 -2
197 1 1 5.5640000000000001e-01 9.2626876171458346e+00 1.0480556414913289e+01 1.0467589407322349e+01 -1 0 -1
91 1 2 -1.1128000000000000e+00 1.4953419449809328e+01 1.2829902697709066e+01 3.6354936489972451e+00 -1 1 0
83 1 1 5.5640000000000001e-01 1.6025918862231737e+01 1.2494488054426695e+01 5.1714855725252926e+00 -2 -1 1
258 1 1 5.5640000000000001e-01 1.7582209229832252e+01 1.0096622091150667e+01 1.0066372079872885e+00 0 0 2
182 1 1 5.5640000000000001e-01 1.5201373652025680e+01 8.6162321508687860e+00 1.2882095763466619e+01 0 0 -1
28 1 2 -1.1128000000000000e+00 1.6688120625550113e+01 1.3450706121972848e+01 1.2776241088718363e+01 -1 -1 1
152 1 1 5.5640000000000001e-01 1.7478643843956203e+01 1.5133722506693763e+01 4.0904793717729167e+00 -2 -2 -1
361 1 2 -1.1128000000000000e+00 1.2829283852927418e+01 1.4739512699087696e+01 2.2718762937207118e-01 0 1 1
78 1 1 5.5640000000000001e-01 1.3360717675943377e+01 8.7006907074444282e+00 1.3607563377588216e+01 1 0 1
279 1 1 5.5640000000000001e-01 1.5908472696251305e+01 1.0850502364213524e+01 1.0197363148735574e+01 0 -1 1
9 1 1 5.5640000000000001e-01 1.6610834418136626e+01 1.5057955480604198e+01 1.2188288557695380e+01 0 -1 -1
223 1 2 -1.1128000000000000e+00 1.1496810167237395e+01 1.1845871550808766e+01 1.2336354385006475e+01 0 1 0
216 1 1 5.5640000000000001e-01 1.7821570751614392e+01 1.3814021522892526e+01 8.6137161318477435e+00 0 -1 -1
257 1 1 5.5640000000000001e-01 1.6256824425459737e+01 1.0370464270204632e+01 3.2821162765491058e-01 0 0 2
196 1 2 -1.1128000000000000e+00 9.1801089778317841e+00 1.0489257111083585e+01 1.1421181210133462e+01 -1 0 -1
240 1 1 5.5640000000000001e-01 1.1186316016155784e+01 1.1955866819466943e+01 1.4313832112370605e+01 -1 -1 1
154 1 2 -1.1128000000000000e+00 1.6313089171968890e+01 9.0585643916982939e+00 1.0459986473032384e+01 -1 -1 -1
181 1 2 -1.1128000000000000e+00 1.6073493554560294e+01 8.2308172104260162e+00 1.2966334990531758e+01 0 0 -1
278 1 1 5.5640000000000001e-01 1.5084589086684870e+01 1.2086475782880845e+01 1.0489735359503642e+01 0 -1 1
314 1 1 5.5640000000000001e-01 9.1733268332325579e+00 1.3920373442898294e+01 8.4968041224082196e+00 0 -1 2
18 1 1 5.5640000000000001e-01 1.6198692317789106e+01 9.7027141536142842e+00 2.4661383988905277e+00 -1 -1 1
277 1 2 -1.1128000000000000e+00 1.5987829495996889e+01 1.1774538525409657e+01 1.0434199773319339e+01 0 -1 1
259 1 2 -1.1128000000000000e+00 1.5299463495508366e+01 1.5024068686939868e+01 1.4166663330600953e+00 0 0 0
313 1 2 -1.1128000000000000e+00 9.5327601941625240e+00 1.3919659486053803e+01 9.3839564441965386e+00 0 -1 2
239 1 1 5.5640000000000001e-01 1.1854456638718217e+01 1.3133676583494646e+01 3.1915318517483937e-01 -1 -1 2
119 1 1 5.5640000000000001e-01 1.0976361579494833e+01 1.4294751162971094e+01 2.9206131623972218e+00 0 -1 -1
354 1 1 5.5640000000000001e-01 1.3780478523901815e+01 8.3280391908866314e+00 8.5113070721864474e+00 0 1 0
352 1 2 -1.1128000000000000e+00 1.4420286004465060e+01 9.0050871776759589e+00 8.2911149965837687e+00 0 1 0
330 1 1 5.5640000000000001e-01 1.4130258469035983e+01 1.4052649752035649e+01 9.9529851105368792e+00 1 -1 1
328 1 2 -1.1128000000000000e+00 1.3721703746523078e+01 1.3187020579112760e+01 9.9514649580911403e+00 1 -1 1
238 1 2 -1.1128000000000000e+00 1.1355611921857337e+01 1.2337793670256296e+01 5.0343382333173037e-01 -1 -1 2
353 1 1 5.5640000000000001e-01 1.5059058240724404e+01 8.9723425913251713e+00 9.0032459469174082e+00 0 1 0
76 1 2 -1.1128000000000000e+00 1.3696310300972932e+01 9.3721621404498148e+00 1.3013647529166962e+01 1 0 1
77 1 1 5.5640000000000001e-01 1.2915153036217996e+01 9.7364387934322121e+00 1.2597319038188035e+01 1 0 1
29 1 1 5.5640000000000001e-01 1.6524522644296237e+01 1.3027695525628429e+01 1.1933311467278070e+01 -1 -1 1
245 1 1 5.5640000000000001e-01 1.4517850007922901e+01 1.0706406671464155e+01 1.3744286541402966e+01 -1 1 -1
224 1 1 5.5640000000000001e-01 1.0750722986998609e+01 1.1300562100360834e+01 1.2086896590822803e+01 0 1 0
225 1 1 5.5640000000000001e-01 1.1440473405599040e+01 1.2607926737265522e+01 1.1759873596160167e+01 0 1 0
329 1 1 5.5640000000000001e-01 1.3192401027060745e+01 1.3172862367654051e+01 9.1540495280127825e+00 1 -1 1
156 1 1 5.5640000000000001e-01 1.7139463446562726e+01 8.7818699260485662e+00 1.0064034811874359e+01 -1 -1 -1
198 1 1 5.5640000000000001e-01 9.2687632329607190e+00 9.5714599871477581e+00 1.1678127890542111e+01 -1 0 -1
20 1 1 5.5640000000000001e-01 9.7424753790564882e+00 1.4903595835410016e+01 6.4122997564576210e+00 0 -3 1
87 1 1 5.5640000000000001e-01 1.0250374320388275e+01 1.5183623450737153e+01 1.0460621124015587e+01 0 -1 -1
215 1 1 5.5640000000000001e-01 1.7489119974573164e+01 1.2558573442321702e+01 9.3916772444828016e+00 0 -1 -1
350 1 1 5.5640000000000001e-01 9.4480676443815348e+00 8.4920392891401413e+00 3.6609100881954957e+00 1 0 -1
103 1 2 -1.1128000000000000e+00 1.7871779503798347e+01 8.0545290383653452e+00 5.0224742198839909e+00 -1 0 -1
349 1 2 -1.1128000000000000e+00 9.5327557664022571e+00 8.7849416293489515e+00 2.7535682985098049e+00 1 0 -1
183 1 1 5.5640000000000001e-01 1.6472159471608599e+01 8.6974515104508150e+00 1.3700876786766949e+01 0 0 -1
351 1 1 5.5640000000000001e-01 9.0541679705927489e+00 9.6133497765110345e+00 2.7231457919253290e+00 1 0 -1
381 1 1 5.5640000000000001e-01 1.3029604816273599e+01 1.5472512831923071e+01 1.3238368264888450e+01 0 0 -1

Velocities

109 -1.6553422246730837e-03 2.0561181587673305e-03 -5.4374718002327621e-03
222 4.9684768559967157e-03 -5.0450797549304351e-03 -1.5678698017194872e-02
220 -2.3531756426633352e-03 2.5984020112391706e-04 8.2427206640746115e-03
31 -2.4534887557913203e-04 9.7161550365552195e-03 -1.3276475959452943e-05
205 -1.1162404146257687e-03 1.6626973773476578e-03 -2.8818195793657063e-03
348 -5.1388987294222815e-03 -1.7784075425719120e-02 4.3193765171066299e-03
347 -1.1467075162701755e-02 1.2517049746788866e-02 -3.5507930890645953e-02
75 -1.4686313977323809e-03 -1.9638712124048243e-02 -1.0413532359112531e-02
27 8.3555582843416781e-04 -8.8451384246792386e-03 -2.2192477782625036e-02
346 -1.1151038035741093e-03 -4.1111933418428483e-03 -1.7958076872262006e-03
72 3.6209409918468208e-03 -2.4778976523860675e-02 3.5592577305882040e-04
136 2.4992770488708790e-03 -3.1530888126835659e-03 4.1127657185349486e-03
108 1.5694930062525543e-02 1.9573804769826165e-02 -1.2477919958868221e-02
74 -1.2802292859477305e-02 1.5058965084572907e-03 1.4894858244963014e-02
298 2.1511130287092143e-03 2.7551078963668611e-03 -5.7510843509808417e-03
73 -2.5581453346259016e-03 2.0537453849145742e-03 2.4671386938705194e-03
321 1.5271166307410996e-03 -4.8324858904393569e-03 -5.0950945765937897e-03
221 7.3661395133635009e-03 -9.0940267702645048e-03 1.0217364038554349e-02
38 -8.5443081222348234e-03 -5.8559039584044565e-03 -2.0296290837421347e-04
26 8.7254683070266837e-03 -1.1410325182054431e-02 -1.1648821515927284e-02
383 5.9689557112692681e-03 -1.6643892241286797e-02 -5.3563197725613803e-03
320 8.5173036537084662e-04 4.2200653913185325e-03 -7.4860598410223279e-03
71 -5.9400538391611597e-03 2.9464436903619967e-03 -4.2388469048470177e-02
319 3.2376569267844758e-03 1.2707733133051477e-04 -3.1088948753679388e-03
39 6.5795640076932978e-03 -3.1478943536730536e-03 2.3807301018837778e-02
25 2.9742276816243432e-03 -4.5530392630264063e-03 -4.4364994764438323e-03
311 2.8414501392233205e-03 1.2380971593273337e-03 -2.4623272463890691e-03
106 -4.3597953450894357e-05 4.2826171130647579e-03 7.5072718129319061e-04
107 4.2033401291239310e-03 5.2839078339853261e-03 -1.0456603514068180e-02
81 1.3379664749395406e-02 -1.0984618365744484e-03 1.5839778638905434e-02
138 -4.1008227754165266e-03 -1.1663078261380730e-02 1.2553304693534582e-02
141 3.3274784912327941e-03 -1.0275915206179939e-02 3.4028907430170880e-04
206 -8.4252921675407721e-03 6.3342825752560230e-04 -8.1553493764898819e-03
140 -1.1808148415210737e-02 6.2972498208163251e-03 1.1070762322515802e-02
357 5.8101449897503881e-03 -2.5842115135264743e-03 -7.0888276920160083e-04
137 1.0996828020215566e-03 -5.8738917151567819e-04 2.5219813685397347e-03
157 -2.6468601505215362e-03 -6.2653643876440699e-04 5.6151596546446022e-03
99 7.4152898368170326e-03 -1.6100421481825566e-02 1.1515850477379783e-02
355 -5.0282118440394073e-03 2.6562165721927744e-03 -2.4082228572327108e-03
110 -7.1350891479139136e-03 1.3440396670963082e-02 -1.6303385758815066e-02
364 1.8870139861613957e-03 1.2940924479062138e-03 1.4687849368407245e-03
59 1.8792033561848183e-03 -1.3813938322298231e-02 -1.1783482609707269e-02
213 -4.7897294225785975e-03 1.4706176942719344e-03 2.2640707793847924e-02
187 -3.7604303375153368e-03 5.4539072152245544e-03 6.3751361943555082e-03
53 5.4777363148388984e-03 -1.3471138904589005e-02 -4.0220976519775870e-03
335 1.1884281877691003e-02 1.0463808863043740e-02 -1.9463381218376635e-02
33 -8.9566814486763818e-03 -3.1789040024341218e-04 -9.8624203482856557e-03
189 -2.0683031712793632e-03 6.7979461887739503e-04 1.4580776409175628e-02
309 -1.4647198014691526e-02 -2.5087801699143538e-03 -7.0939888794680087e-03
262 -2.3158102864446648e-04 5.7136691423725287e-04 1.4581760997721825e-04
366 -1.2542887743516504e-02 -9.5205082253215412e-04 -1.7447050909976238e-03
291 5.2718072297884147e-03 4.6637077084456845e-03 -9.6515490757653772e-03
158 5.5894895594323156e-04 6.5398673062638715e-03 9.5936512972477506e-03
97 -5.0627081725415279e-03 -4.4262273500636955e-03 2.2837264735613210e-03
54 -1.4016647729439224e-03 2.7018050781551701e-03 -5.9763037586340554e-03
188 -3.0761101647502941e-03 1.7704724466738233e-02 1.2586500672210170e-02
269 -3.3253173011919598e-03 -2.9705220202142636e-03 4.3245542506646990e-05
365 -8.6706061255611321e-05 8.9845756434259513e-03 1.2535445569751034e-02
290 1.4080429550150849e-02 2.1140025003176726e-02 3.1023019653546968e-03
271 9.9975410114510883e-04 -7.1316408615409955e-04 7.2905307370850049e-03
150 -5.5943139263933883e-03 -1.4263873272836710e-02 -6.5490621127464472e-03
149 -1.5969063911299354e-02 4.5565444377546529e-03 -1.3998741612938495e-02
211 -4.8920723024985582e-03 5.8019683987881373e-03 4.5614643077844883e-03
139 5.9845346479727472e-03 6.1590593694888620e-03 -3.1344914526083060e-03
384 -4.8973502098752595e-03 -2.5620332854095216e-03 -3.2172681744908212e-03
263 -1.2103071827696096e-02 -6.0696887671292934e-03 -2.5682963078331143e-03
167 -9.1803925195038606e-04 -8.3500064144673859e-03 -3.9778454402695333e-03
147 -2.2545630010721567e-02 3.1153596023208276e-03 6.2756292068403500e-03
70 -3.8190412097703860e-05 -3.8393156131276509e-03 -2.6181252620670857e-03
148 1.3037921504095325e-03 5.5513157286739712e-04 -2.6376732800984549e-03
13 -2.5617797604310286e-03 1.4463693028620899e-03 -3.6198139340118791e-03
168 -1.2985704502503370e-03 2.2621746542894779e-02 4.5304539178040873e-03
356 3.8131014138464552e-04 3.7199551932183676e-03 -4.1588290748811050e-03
264 -5.4674521171672805e-03 -1.8569350188467271e-02 -1.5572463767001414e-02
310 -7.5962303610859162e-03 -2.4345808195878641e-03 2.5714218727318312e-03
212 -2.6438502865202217e-03 2.8004576277764377e-03 4.1610934238652687e-03
32 -4.5180744217834783e-03 1.6126477911086776e-02 -3.5805797605599479e-03
98 -1.9251471563047216e-02 1.1264957022946770e-02 -1.0811649860576955e-02
270 -3.6875635296594240e-03 2.8235742476715184e-03 1.3969566006633986e-03
268 -2.1435287922855410e-03 3.9075355164140484e-04 2.7762241437329972e-03
48 1.2046179581276168e-03 8.4855409236349114e-03 1.1759613415953735e-02
273 -1.6595353535451645e-02 7.7775240045160629e-03 -2.0162458013982341e-03
166 3.3056535272053618e-03 1.6103720073688068e-03 5.5155304083698477e-03
299 5.0135667793433421e-03 -9.6971518136134086e-03 -1.4003715701740787e-02
111 -1.5647079725882918e-02 -8.6719464111518537e-03 8.9259092445198099e-03
14 -9.5240026404039314e-03 -1.1728636040721594e-04 1.4335749525261419e-02
289 -6.3006861126648850e-03 4.3562722370057063e-03 4.4430023832775873e-03
334 6.2242667921809779e-03 1.1193367098260649e-04 -4.1656853683187398e-03
336 2.0502002700132697e-02 -9.7858502388644460e-03 2.2888176769169212e-03
145 -2.1304712586865102e-03 1.0877642499620172e-03 -6.3167594482856698e-03
236 1.0051127541903833e-02 -2.7551207871019803e-02 -1.6028855535090197e-03
382 -3.9398430604138225e-03 -2.6934962350345592e-03 -6.6319658665942643e-03
307 -4.2448368002057377e-03 -1.5968258695845097e-03 -1.6483207332525307e-03
52 2.3624479030568280e-04 -5.2779250988463800e-03 1.5395086121623694e-03
325 1.4322946346662763e-03 6.7742976337812786e-03 -8.4686844971283194e-04
272 8.4006433620603897e-03 -1.3179931924459334e-02 -8.9351511797522397e-03
47 -1.0727456067107642e-04 -8.2004680164627381e-03 9.9782494767620619e-03
37 -2.9196038739562110e-03 1.2179719969139704e-03 3.7023012252116502e-04
131 -5.0260552077601274e-03 2.0876365428708958e-02 2.6446486113894076e-02
21 -5.7353582615548761e-03 9.6815139490014079e-03 -6.0328418135625738e-03
49 -1.6716325692298034e-03 3.4265227142162200e-03 -7.3135232597537720e-03
50 7.3375125612755044e-03 6.7320322141289262e-03 -4.3800364021731989e-05
255 -4.7662554833601154e-03 2.3334417777492880e-03 7.4423778634622991e-03
132 -2.3287877464135921e-03 1.0881234074937450e-02 1.9660624898852390e-02
130 2.0396492514074532e-03 -1.2278245778572464e-03 -9.5905864179518638e-04
249 1.5218743817864481e-02 -1.4371674603501240e-02 -2.0615541459566643e-02
165 -8.2932266404462003e-03 -5.8960574382944178e-03 -7.5165408729106365e-03
219 -1.0715119955400007e-04 -1.9035899759947783e-04 -1.4737802642689844e-03
142 -3.6725175246267359e-03 8.7220704943004289e-03 3.9075509288958877e-04
295 5.5067424286491546e-03 -6.1347897749728861e-03 2.9358552063180401e-03
51 4.8525202556672399e-03 -2.7611552689712538e-02 7.1223213272876510e-03
297 1.8082995795794480e-02 -6.3292318535818253e-03 7.3920116360965439e-03
296 4.6101034321112865e-02 -2.5298836881779699e-02 1.0370594212148724e-02
217 -3.4401116833074227e-04 -3.1757205225077181e-05 9.0217458104299383e-04
253 -2.5657672608615676e-03 3.5466148006432054e-03 -4.0717202468097064e-03
254 -1.3317099811799514e-02 -1.5912604256831952e-02 1.0600482030166345e-02
333 -1.4785589635322090e-02 -6.6245253715929136e-03 1.1542119347769471e-02
218 4.3383144918123098e-04 5.8610848509226573e-04 2.0398023653036869e-03
369 -8.3773321922882131e-04 -6.9182199050243426e-03 -5.4036988596115358e-03
230 -1.1290218139684382e-02 7.0197572919407421e-03 -5.8035502404674196e-03
233 1.1276963518416604e-02 4.8237130216776400e-03 -4.5499328548281271e-03
281 6.4462155784105581e-03 7.9164749294797568e-03 9.5016560228287084e-03
339 -5.5680541483445565e-03 -7.7089114274888678e-03 2.5628555674193493e-02
338 1.7640348495932046e-02 1.7110452194338342e-02 -5.9762569137530846e-03
214 1.9228998260096049e-03 5.3145698088533947e-03 -3.0005899422374193e-03
4 5.7904815792594834e-04 1.4493045107371110e-03 9.5549876738757825e-03
164 2.2417217091044413e-03 3.2099363511323142e-02 -3.7934517197032555e-03
315 -6.1735962278002823e-04 -8.0683882136668734e-03 3.0941368509089463e-04
80 -8.7536868282809350e-04 -4.0081974086800714e-03 3.1766933202020481e-02
229 -6.3871267401427912e-04 5.4537160081874793e-03 1.6895163059606306e-03
231 4.5073238142134577e-03 -2.4941907204124365e-04 5.7680493090823378e-03
153 -1.2311297699679162e-02 6.7891632517534592e-03 2.0177688852123586e-02
332 -6.6602470343796738e-03 1.3104497357386951e-02 1.5987248579197286e-02
367 -1.6119487553106476e-03 -6.9212955125231151e-03 -6.5060941985794433e-03
116 6.0466057749172242e-03 2.6286509773138160e-03 5.9454745442630149e-03
6 -6.1034312003464186e-03 1.7037171515824859e-02 1.2945559334597866e-02
248 3.6273611495676976e-02 -2.9583938459948264e-03 7.4800111220855465e-03
305 -8.8568681272223337e-03 -1.3485083897132953e-02 1.9820596077936556e-02
232 3.3551274011067974e-03 3.2703468921291765e-03 -5.5836446529817152e-03
117 -1.5389745066804201e-04 -7.8839193782352691e-03 2.7390668638076425e-02
151 6.6228499567953450e-07 -1.1273692794220799e-03 5.7597390790310402e-03
234 -7.6795889152941827e-03 -7.6054816458269361e-03 -2.4922940593096968e-02
368 -2.3074753776606744e-02 5.3809726647249959e-03 -1.8234143214460256e-02
115 5.3833410881392952e-03 3.6966178848687361e-03 4.6957502768159012e-03
128 -5.8810343022302350e-03 -1.8288578040394868e-02 -6.3687586810105183e-03
34 -2.6539235415305317e-03 7.8127711708860526e-05 -1.6964292678691615e-03
19 4.0285898795929809e-03 7.2493446810533652e-03 -2.7357335593343221e-03
226 -5.2728654057972594e-03 1.6670627978941760e-03 -2.0231139330033894e-03
46 -3.5236270113328020e-03 -1.2547109870544798e-03 2.3138375738277086e-04
304 -4.2009881753935791e-03 3.3201792162045108e-03 7.7490679056444085e-03
169 -7.5826808464175442e-04 1.7114282720880752e-03 2.1017312580390501e-03
144 8.2252197303290479e-03 -6.9534217402402254e-03 1.7741993749879732e-02
247 1.3034398320612081e-03 1.0384040296756477e-03 -2.8358886785575892e-04
5 -8.0296283185893270e-04 -1.9874966057069573e-03 5.7848853474690744e-03
143 1.2406014604139471e-02 2.3094141850403448e-02 4.9150000112505882e-03
123 -1.1842069136595553e-02 -5.6467004821717723e-03 -2.4694113186441180e-03
79 -1.4323088838450679e-03 -3.8726483874038900e-03 4.6196657712028293e-03
3 1.5021726838216377e-02 6.0057903816512484e-03 9.1007800076175899e-03
1 5.5474556925745253e-03 -2.3256886021421003e-03 4.6867226056282414e-04
159 -9.1710180605893265e-03 2.1320129364368868e-04 -6.0442661305857423e-03
42 -1.0198812504887958e-02 5.0915432242053136e-03 -2.1247030497198796e-02
35 -6.6242518047016632e-03 9.0649798625067907e-03 9.4364431352638063e-04
122 6.4865438928238643e-03 -7.3522365804291846e-03 1.8190864530536813e-02
121 2.4447730728784293e-03 -4.1944121056374520e-04 1.9047127337587511e-03
344 -9.2085768652185734e-03 2.2227680834955254e-02 7.1469409567923737e-03
40 1.5396080121410592e-03 -4.5324132675667369e-03 -1.0129305830237933e-03
331 1.0133551070294762e-02 -5.3939724726918201e-03 4.2644475618499721e-03
208 1.7732380565884088e-03 -8.5112541612380609e-04 2.3271103934027473e-03
327 -3.4771823252616671e-03 3.8655046762466308e-03 -8.2339591558603185e-03
127 -2.4590427848385603e-03 1.3154372276754221e-04 -1.1072417766078222e-03
45 8.1218256361333223e-03 7.7765773655861107e-03 -2.2699325097285877e-02
209 8.8279770166038874e-03 7.5311504446421160e-03 -2.5967667395166488e-03
2 2.5916330351064940e-03 -4.2011923840296339e-03 2.3859780111853014e-02
41 -5.6217401167837368e-04 1.2621207485279727e-02 1.5064915801337075e-02
326 6.2059146957198314e-03 9.7623386620223716e-03 8.6772053878387788e-03
163 -5.2670058509476664e-03 1.3715741690320910e-03 3.7714003318436821e-03
171 -8.5499841321170150e-05 1.2647555763340446e-02 -3.1107996692109731e-03
129 -4.8329721291079021e-02 1.1404199760441174e-02 1.0157767896239072e-03
308 -4.2077162066266910e-02 -8.9724079455920664e-03 -7.8219592312987266e-03
343 2.5614941893663539e-04 3.7300632843943870e-03 2.7593545661356860e-03
210 -1.2867165412132005e-02 -2.0757700046594298e-02 -7.8457666258017044e-03
227 -4.5970191629691208e-03 1.5212953374281262e-02 -5.8282472816795772e-03
306 -7.3041567757557149e-03 7.3962517959543644e-03 3.6939214411612718e-03
36 -4.9376050676464131e-03 -3.4058553963602130e-03 -1.5281157217856571e-02
345 -4.7524015894544961e-04 8.3189731070245389e-03 3.0432693413930006e-03
170 -3.6952461919371555e-03 2.9526519470859200e-02 -1.1217213347964885e-02
146 -9.6819405194178663e-03 6.1893314020120219e-03 -2.3717473293348220e-02
15 3.0183650678895059e-03 -1.5371655890358731e-02 -6.9458588396221262e-03
337 -2.5942624839588257e-03 -3.6823128505872648e-03 -3.4968780464211999e-03
202 -1.1283528568914407e-04 -3.4890740494228599e-03 4.7290612862510304e-03
135 -1.0900576006730485e-02 1.2622700400070175e-02 -4.4672580585021606e-03
10 -1.9278872064937896e-03 3.8475120610994267e-03 -4.3045192370191965e-03
276 -1.2135181085388497e-02 9.9357408777954494e-03 2.4835754030653572e-03
203 3.7715283910209733e-04 -2.5782647332529001e-03 6.9381493657108950e-03
317 1.4179114487339174e-02 -1.0749775527866982e-02 -4.3898153920256212e-03
113 6.5784485233976321e-04 -5.8404162798700058e-03 5.3073501374083726e-03
112 1.6424253010356366e-03 -8.1159117568193326e-04 2.5610167741876421e-03
114 2.1310904620391480e-02 7.5422378297017702e-03 -5.8350560927068976e-03
126 1.0946288609037055e-02 -3.4807215859643879e-02 3.4508167472217383e-03
124 5.4899658742152109e-03 1.6437217216850901e-03 -1.2027560984470237e-03
11 1.0299594719890675e-02 -3.5136113524688092e-03 -1.7288619236837360e-02
56 -6.5179115987643328e-03 4.2625402723305526e-03 -1.0220593683643866e-02
133 -7.4373912041915766e-03 2.3802090059827931e-03 -5.6213385687345239e-03
195 3.3085477955073655e-03 1.0432631277137328e-02 -5.3782570231191247e-03
302 1.6888746753561618e-03 6.8918311016732819e-03 -1.8479377701548300e-02
125 7.2882176813843487e-03 7.2800264047337268e-03 1.0082378845984910e-02
12 -6.4733916041553709e-03 -1.0105697172654507e-02 7.7744967557343881e-04
199 3.0654296414718438e-04 -2.6271123663225687e-03 4.6190355067947638e-03
250 1.9765272340166984e-03 -6.2706622017049882e-04 -1.5796157921365561e-03
162 -1.7808826954593925e-02 1.4225270735808895e-02 1.1353165365335769e-02
242 -1.6478142603818934e-02 1.5651463475319888e-02 -1.1611741601422728e-02
374 -4.3757438070912867e-03 -4.1408091697157931e-03 -1.9271343243563990e-03
55 -3.9320951187284765e-04 6.1107490827521952e-03 -3.4420357881849700e-03
204 -1.0471045597787949e-02 9.6134128749433036e-03 8.5973341006692124e-03
243 1.0281888142683359e-03 1.9167659543494772e-03 2.4953460979740673e-04
341 6.3680072606739340e-03 -1.1564458614446169e-02 7.3380212764794020e-03
178 7.7694328363051672e-03 -5.2650930100261511e-03 1.8260797615473345e-03
359 4.0637054348400684e-03 -1.7495333915176998e-02 1.1892193991630658e-02
180 2.8702798131880258e-02 1.9724144505872832e-03 -1.1138875805815383e-02
252 -1.6389584514296073e-03 1.7607100375328211e-04 -1.0529604419442563e-03
267 -2.1741552611019037e-03 -2.9618887702266342e-02 -1.2464777956885661e-02
358 -6.0770813205159925e-04 4.0063147509360767e-03 8.9687312521356189e-05
179 -1.5145454313679923e-02 1.7190280939019529e-03 -1.5365654754116930e-02
275 6.1269513677097839e-03 -3.1061457179688525e-04 4.2110518244535666e-03
174 7.3805027612973313e-03 1.2081761227082759e-02 1.3694020375188576e-02
160 1.4420901688489730e-03 -3.0885557957012967e-03 5.4416412591479562e-03
251 3.5120957748197954e-03 4.9392082071396826e-04 1.5387441484157254e-02
322 7.0695391271138842e-03 1.4869673610221669e-03 -4.0137593779106650e-03
342 -9.1831699806208770e-04 -1.1917632090360633e-02 -1.2124864915716490e-02
57 3.9840528397989206e-03 1.8007904785709405e-02 -3.7720444044112150e-03
64 4.8733293911968839e-03 -5.4143013475687106e-03 3.7718521479017907e-03
274 -5.8847203762433745e-03 1.2179754578831469e-04 -2.6350420011349938e-03
300 1.0085971057141825e-02 7.5219633585559031e-04 7.3272929594530864e-03
190 2.6446912553850562e-03 2.1266594347987060e-04 1.7715521508854099e-04
60 -5.0387942747633111e-03 -6.5318791654182893e-03 -1.4560092601409160e-02
294 1.2698802636307868e-02 5.5859545503439403e-03 8.1090985253946101e-03
292 -3.4980430665041183e-03 -2.7591949405622093e-03 -5.1492575434944508e-03
373 -1.8382146997202621e-03 4.8916858898838129e-04 -1.3957364819836399e-03
293 -1.7373034669443191e-02 7.1149878449287968e-03 -1.4216171001331343e-02
58 -3.2040793379148856e-04 -2.3972989393478481e-04 -4.0852272422052206e-03
380 1.6485732360679347e-02 5.9130760139340889e-03 -1.9039506910573514e-02
379 3.3777983787981734e-03 -1.3799042804599510e-03 -5.2124205739695298e-05
194 -1.2418524404379558e-02 -1.4407303690268432e-03 2.2089647631347827e-03
186 -1.2155161690644005e-02 1.1726260167109334e-02 -3.1274559081478645e-03
23 -2.5121555426745692e-03 -7.1233974855354650e-04 3.0727296474185786e-03
22 -2.2556899517123057e-03 -7.4579410777067675e-04 2.6724359626768951e-03
192 1.8903208324358826e-03 -4.9649070013179719e-03 4.3757915824258449e-03
318 2.1065386226744427e-02 1.2888377260684888e-02 -4.6532867969919780e-03
24 2.5039260024437016e-04 3.9523692264536704e-04 4.5820952191793091e-04
200 -2.3558462913510068e-02 2.9147514452377990e-03 2.9059528061428706e-03
375 1.7781661044497803e-03 6.9090919727069350e-03 1.3682474102633809e-03
266 1.3920722377832814e-02 1.0379510781716604e-02 -4.2860669901662111e-04
360 1.8974933896487949e-02 1.7763239251908817e-02 3.4148340033179807e-03
69 -7.2063922481957589e-03 -7.2173538773419928e-04 3.0643046734141113e-03
301 -8.4805402760095949e-04 1.9516583589910153e-03 -4.3768247288169095e-04
191 -2.1827858144589157e-03 1.8361674328996919e-03 5.6588409274804996e-03
193 -2.3754761954941968e-03 4.2471618644570218e-03 -2.1196611630673835e-03
86 1.1593700078413654e-02 3.8107880624805278e-04 7.1142242757885098e-03
303 4.0866681573218065e-03 5.1327989848140880e-03 1.3240812625992922e-02
96 3.0572372076205644e-03 1.8781276193761437e-02 -1.7958646916226808e-02
173 1.7656374015456144e-04 -4.1266764047108908e-03 -1.1545872577627934e-03
7 -7.3167550704461559e-04 -4.1633109296642639e-03 7.9275908383054910e-03
67 -2.4893144122706255e-03 8.4617924631543925e-04 3.3500361492499638e-03
185 3.2914015921555934e-03 -1.0413374771319981e-02 -8.9194478460799167e-03
184 -4.6730761822870822e-04 2.7571535159206222e-03 -3.3767984832090590e-03
324 2.0796051114156899e-02 2.2412811936446238e-02 1.7796573341268430e-02
66 6.3967729534805768e-03 4.7393911996257860e-04 1.1637999594469747e-02
8 -1.1937057575268124e-02 -2.1413485777107676e-02 -2.6477748844012116e-02
94 3.3821689317071325e-03 3.9372233674474242e-03 2.0821002513582067e-03
378 -5.1043809539396620e-03 2.5153099536953899e-03 -2.2082412897945717e-03
340 -3.0581012723488407e-03 -9.5810611736246269e-03 6.8835311362608776e-04
95 -1.0829915486265050e-02 1.3387965388727942e-02 7.7637714477157466e-05
172 7.2606732191289507e-03 3.5118706333605565e-03 3.8917430851917560e-03
68 8.9111470840769029e-03 2.8723268980992506e-04 3.9436148150235181e-03
376 2.1356256175342593e-03 6.3720422309196314e-04 -4.9344930127243327e-03
323 -9.3963472595091531e-03 1.3792716737526042e-02 -2.4644836646460354e-02
207 -1.3728089614365115e-03 -2.4664918385337523e-02 2.0919832058891416e-03
90 -2.0643027873353096e-02 4.0834643696789482e-03 8.2013759878396498e-04
241 1.0649830551380320e-03 -8.2762458878039120e-04 2.9797085739053271e-03
237 1.2053538545418407e-02 9.7211405178012963e-03 -3.0689654789423561e-03
316 9.1956333917157899e-03 1.8947650022009038e-03 1.2077894237257799e-03
265 5.0076815181053736e-03 1.7269689196097407e-03 -7.8127081450711268e-03
201 9.1213188402536893e-03 -1.5015160278908689e-02 1.2624217409182932e-02
85 5.4265177938291401e-03 7.2647616682691004e-03 -1.7127334910036970e-03
235 1.8261528380228455e-03 -4.3452897181378812e-03 -9.5342469720426856e-03
312 -1.8021366398633616e-02 3.4542899115439832e-03 -3.7751354854044625e-03
134 -5.4428884422033754e-03 1.0721312302404655e-02 -3.9289837890136934e-03
228 -1.5907462906812480e-02 -2.5322732234856357e-02 5.7196036969460037e-03
175 -4.4629042932189961e-03 -3.3563751797545472e-03 1.3457315715992514e-03
63 -6.5169318292026721e-04 -5.6176618552174883e-03 5.9923918834787094e-04
370 4.1551231332825154e-03 -4.4811391750954158e-04 3.3783977138593358e-03
372 6.7513609071014466e-03 -1.9171139778570132e-02 -8.2529409765612141e-03
286 4.6899093137256999e-03 1.0290041654845720e-03 -5.4127499755009002e-03
105 -9.3782021115462302e-05 -3.6053653428602768e-03 3.8638183654470123e-03
371 1.1604100653568789e-02 1.5166670965679183e-02 -1.0775157132320447e-02
377 4.9665137884569791e-03 6.5278533698542741e-03 1.6991957050135715e-03
89 1.8479170020309008e-03 -1.5066973179223228e-03 -1.3140760218806018e-02
62 -8.9307729062716550e-03 4.0678407737631183e-03 1.2927864279925681e-02
65 -9.8601796846206884e-04 -8.9342601862807294e-04 -7.5265319885949623e-03
283 3.3362018428970499e-03 3.6262990807081765e-04 5.5491052911030043e-04
17 1.1841797631975503e-03 1.4017688686266024e-03 4.1476163863446384e-03
88 -5.0128712461956640e-04 -4.0423541324020639e-03 -7.0966222892301541e-03
100 -8.8330637476624393e-03 -5.1278494758616984e-03 -5.3610712890701632e-04
261 6.9176129958646217e-03 -1.3307136843294791e-02 -1.3111005655988410e-02
161 -5.2773580931572894e-03 3.5810543950683064e-03 8.5313690146547484e-03
61 -5.5201810666365668e-03 2.9295502459480431e-03 5.4794297243350321e-03
44 -4.2885503206768153e-03 -1.4689506777131624e-02 3.2300135584317612e-03
285 -2.7274002695528692e-02 -5.6206589291302709e-04 2.5549970689024211e-02
288 3.2170816922733455e-03 4.6781009058499976e-03 1.5399293008371008e-02
363 5.1771673850619108e-04 -3.2620935226029520e-03 -1.7786153490627775e-03
30 -1.3244641383252508e-02 2.4747577792686406e-02 -1.1342452064956861e-03
120 3.1300617782065703e-03 -1.3251335616639661e-02 3.7981371390767883e-03
93 1.0782085192244337e-02 -1.5203621644696321e-03 1.3677503893163565e-02
43 8.2478677831664977e-03 3.1451381895177721e-03 -1.1129244897073456e-03
84 3.1226569546449123e-03 -1.3268141190518740e-02 6.4280256267811786e-03
280 7.3543489375539851e-03 -1.6679216663846924e-03 2.5410623172593318e-03
82 -2.5665348412140360e-03 -5.5488300574004824e-04 4.0404540323300724e-03
16 -7.5013584796273913e-03 -2.2795182683385575e-04 -1.7364413670424078e-03
284 2.0080292825253278e-02 8.7588698723425299e-04 -1.3117492773037006e-02
101 7.7049489569263009e-03 1.2791321321907955e-02 1.3127240361960441e-02
102 -4.2603715771414134e-03 -1.0060043331970331e-02 -1.1209403225781584e-02
176 -1.6963811476605344e-02 -1.7271507245419430e-02 -1.4706982217603311e-02
92 -1.3817783272123281e-02 -5.7870014221351211e-03 1.6585387626267406e-02
155 -1.0417189674510446e-02 -2.5354477133660527e-02 -6.7799870624302636e-03
177 -1.0184471174127590e-02 -8.9618357844092091e-03 -4.7117000573780252e-03
246 1.0815246250756335e-02 3.8959597968590350e-03 9.5973233272021834e-03
256 -1.0305354841667177e-03 9.0586345142093898e-03 -7.9883947413295095e-05
287 6.7356516322424724e-03 -1.9680891114105273e-02 -1.6253108859504612e-02
260 2.3769681278765740e-03 1.4872792078977612e-02 -8.8520307161682743e-03
244 -2.5818878722932885e-03 -6.5648449653228124e-03 4.0116175385004659e-03
118 -6.4394450244870203e-04 -4.1621426192382845e-03 -5.1948300651646516e-04
362 4.5824224375688337e-03 2.7472797488479308e-03 6.3927057873757664e-03
104 2.6819912070400833e-03 -1.1491455879676404e-02 -4.0973382415764815e-05
282 1.3009548337709691e-03 3.9195026643787413e-03 -3.9736509776478997e-03
197 -2.6860679134664660e-03 5.8670718796164749e-03 1.0518638657233382e-03
91 -1.2055063144824653e-03 -4.1232828302126198e-03 3.4791708256502905e-03
83 -1.6879053360312913e-03 -9.6997030541680802e-03 5.0549789660328396e-03
258 6.4863465178543523e-04 2.8085305130372295e-03 5.2285450648411023e-03
182 -9.6739595338476061e-03 -2.5292538222050277e-02 1.3339661414634500e-02
28 2.2633614481662708e-03 2.4011706668548814e-03 -6.3603875037889857e-03
152 -1.3555075680756716e-02 -3.2484595641893489e-03 -2.3192073228657333e-02
361 -8.8841037406978910e-04 -3.2645634922453112e-03 5.6349560104319756e-03
78 3.7745293494937499e-03 5.9752836481237112e-04 9.7372564541434500e-03
279 -4.1083244841381705e-03 -7.0567317779862953e-03 1.1195499322759660e-02
9 6.2465704841755945e-03 5.8603752021391866e-03 2.7964438418218624e-02
223 -2.1137393757314021e-03 5.6116648140686542e-04 -2.0318615659869889e-03
216 -4.7919167203674257e-03 1.5188467506185343e-03 -3.5508293949665383e-03
257 6.0275421922742862e-03 1.3491710875838406e-02 -9.6759059156088984e-04
196 -3.0954465523046664e-03 -6.8140866316367000e-03 1.1321172572779606e-03
240 1.1755714425462490e-02 -5.8204559977340546e-03 3.0767263445271240e-03
154 4.1471793299840626e-03 2.3403818486192316e-03 -2.2460181781106085e-03
181 4.4548267828350150e-03 3.0765242331076141e-03 -3.1388282062680913e-03
278 -6.4506263185591182e-05 2.4773597088689407e-03 -1.7713705400843476e-02
314 -1.0062971819362821e-02 -5.5803715019522694e-03 -1.7693052217789581e-03
18 1.5630921339361326e-02 9.4119541394742899e-03 -1.5421210861041833e-03
277 -1.3897182659941385e-03 -4.7246915533700126e-03 1.1859436203167574e-03
259 -5.4031626356643983e-04 -7.5592275078844196e-04 -5.3179547120244721e-03
313 -6.6264154076289420e-03 2.5322450849013765e-03 -3.1551111682456843e-03
239 3.6240204893218463e-02 -1.9560879736112105e-02 2.8175051650767662e-03
119 -2.0476373910411429e-02 -1.1531987619102634e-02 -1.0241789065856826e-02
354 2.3774872540795015e-03 2.8293453778847270e-03 9.4966934379144361e-03
352 2.6924202119517007e-04 1.0296312545885339e-03 -2.1629627409383945e-03
330 -1.9799210141737692e-02 -6.6435143720335990e-05 1.0052556727232553e-02
328 -7.6295804774935319e-04 -9.0313554433760334e-03 -1.1661520820999665e-03
238 2.5486610996892402e-03 1.3038993803438435e-03 1.7271712101969486e-03
353 1.4348214744801918e-02 -2.2655038672698006e-03 -1.4943132909309561e-02
76 4.5179578462233912e-03 -1.0106090194298279e-02 -1.9440027510647380e-03
77 2.1212141430127802e-03 1.0259751978250969e-02 2.0372592866631994e-02
29 -1.3434075701835276e-02 8.2967833766281918e-04 -2.5251599193102147e-03
245 -4.0740003592149169e-03 -2.7529045691564863e-02 3.5769360492341175e-02
224 -3.1087277237672722e-02 2.1553398435420291e-02 3.8734644558697517e-02
225 -4.0436882883248199e-03 -4.5569749533349892e-03 -8.6089743282166589e-03
329 1.7621319671093667e-02 -1.8845880535801912e-02 -1.3194878525688441e-02
156 7.6679399542561250e-03 7.7308463543183190e-03 1.3351116667449244e-03
198 1.2285932436805534e-02 -8.3638211121351714e-03 -9.7104690013585619e-03
20 4.2265138611239199e-03 2.4100230190678834e-03 -8.8922280682054971e-03
87 -2.7874856482177986e-03 2.2055732660407276e-02 -9.7703796066553935e-03
215 9.3455597664152002e-03 1.4464192673317564e-02 2.3381396900307834e-02
350 -2.1890743232429916e-02 -1.6552074024513627e-02 -5.3815814479481845e-03
103 7.5739824215844526e-04 -6.2786050330584132e-03 -8.0723689089954348e-05
349 1.6005915561601372e-03 -2.7372804648180069e-03 1.2706222296020877e-03
183 -1.3301782894689272e-02 -1.4939010446345487e-02 1.7943187241794719e-02
351 -9.0853958841791453e-04 -4.2129808040306908e-03 5.5921997111479352e-04
381 -1.3907919132547910e-02 -1.2139562345867683e-02 -9.9547355689950760e-03

Bonds

1 1 109 110
2 1 109 111
3 1 220 221
4 1 220 222
5 1 31 32
6 1 31 33
7 1 205 206
8 1 205 207
9 1 346 347
10 1 346 348
11 1 136 137
12 1 136 138
13 1 298 299
14 1 298 300
15 1 73 74
16 1 73 75
17 1 319 320
18 1 319 321
19 1 25 26
20 1 25 27
21 1 106 107
22 1 106 108
23 1 157 158
24 1 157 159
25 1 355 356
26 1 355 357
27 1 364 365
28 1 364 366
29 1 187 188
30 1 187 189
31 1 262 263
32 1 262 264
33 1 97 98
34 1 97 99
35 1 271 272
36 1 271 273
37 1 211 212
38 1 211 213
39 1 139 140
40 1 139 141
41 1 70 71
42 1 70 72
43 1 148 149
44 1 148 150
45 1 13 14
46 1 13 15
47 1 310 311
48 1 310 312
49 1 268 269
50 1 268 270
51 1 166 167
52 1 166 168
53 1 289 290
54 1 289 291
55 1 334 335
56 1 334 336
57 1 145 146
58 1 145 147
59 1 382 383
60 1 382 384
61 1 307 308
62 1 307 309
63 1 52 53
64 1 52 54
65 1 325 326
66 1 325 327
67 1 37 38
68 1 37 39
69 1 49 50
70 1 49 51
71 1 130 131
72 1 130 132
73 1 142 143
74 1 142 144
75 1 295 296
76 1 295 297
77 1 217 218
78 1 217 219
79 1 253 254
80 1 253 255
81 1 214 215
82 1 214 216
83 1 4 5
84 1 4 6
85 1 229 230
86 1 229 231
87 1 367 368
88 1 367 369
89 1 232 233
90 1 232 234
91 1 151 152
92 1 151 153
93 1 115 116
94 1 115 117
95 1 34 35
96 1 34 36
97 1 19 20
98 1 19 21
99 1 226 227
100 1 226 228
101 1 46 47
102 1 46 48
103 1 304 305
104 1 304 306
105 1 169 170
106 1 169 171
107 1 247 248
108 1 247 249
109 1 79 80
110 1 79 81
111 1 1 2
112 1 1 3
113 1 121 122
114 1 121 123
115 1 40 41
116 1 40 42
117 1 331 332
118 1 331 333
119 1 208 209
120 1 208 210
121 1 127 128
122 1 127 129
123 1 163 164
124 1 163 165
125 1 343 344
126 1 343 345
127 1 337 338
128 1 337 339
129 1 202 203
130 1 202 204
131 1 10 11
132 1 10 12
133 1 112 113
134 1 112 114
135 1 124 125
136 1 124 126
137 1 133 134
138 1 133 135
139 1 199 200
140 1 199 201
141 1 250 251
142 1 250 252
143 1 55 56
144 1 55 57
145 1 178 179
146 1 178 180
147 1 358 359
148 1 358 360
149 1 160 161
150 1 160 162
151 1 322 323
152 1 322 324
153 1 64 65
154 1 64 66
155 1 274 275
156 1 274 276
157 1 190 191
158 1 190 192
159 1 292 293
160 1 292 294
161 1 373 374
162 1 373 375
163 1 58 59
164 1 58 60
165 1 379 380
166 1 379 381
167 1 22 23
168 1 22 24
169 1 301 302
170 1 301 303
171 1 193 194
172 1 193 195
173 1 7 8
174 1 7 9
175 1 67 68
176 1 67 69
177 1 184 185
178 1 184 186
179 1 94 95
180 1 94 96
181 1 340 341
182 1 340 342
183 1 172 173
184 1 172 174
185 1 376 377
186 1 376 378
187 1 241 242
188 1 241 243
189 1 316 317
190 1 316 318
191 1 265 266
192 1 265 267
193 1 85 86
194 1 85 87
195 1 235 236
196 1 235 237
197 1 175 176
198 1 175 177
199 1 370 371
200 1 370 372
201 1 286 287
202 1 286 288
203 1 283 284
204 1 283 285
205 1 88 89
206 1 88 90
207 1 100 101
208 1 100 102
209 1 61 62
210 1 61 63
211 1 43 44
212 1 43 45
213 1 280 281
214 1 280 282
215 1 82 83
216 1 82 84
217 1 16 17
218 1 16 18
219 1 256 257
220 1 256 258
221 1 244 245
222 1 244 246
223 1 118 119
224 1 118 120
225 1 91 92
226 1 91 93
227 1 28 29
228 1 28 30
229 1 361 362
230 1 361 363
231 1 223 224
232 1 223 225
233 1 196 197
234 1 196 198
235 1 154 155
236 1 154 156
237 1 181 182
238 1 181 183
239 1 277 278
240 1 277 279
241 1 259 260
242 1 259 261
243 1 313 314
244 1 313 315
245 1 352 353
246 1 352 354
247 1 328 329
248 1 328 330
249 1 238 239
250 1 238 240
251 1 76 77
252 1 76 78
253 1 103 104
254 1 103 105
255 1 349 350
256 1 349 351

Angles

1 1 110 109 111
2 1 221 220 222
3 1 32 31 33
4 1 206 205 207
5 1 347 346 348
6 1 137 136 138
7 1 299 298 300
8 1 74 73 75
9 1 320 319 321
10 1 26 25 27
11 1 107 106 108
12 1 158 157 159
13 1 356 355 357
14 1 365 364 366
15 1 188 187 189
16 1 263 262 264
17 1 98 97 99
18 1 272 271 273
19 1 212 211 213
20 1 140 139 141
21 1 71 70 72
22 1 149 148 150
23 1 14 13 15
24 1 311 310 312
25 1 269 268 270
26 1 167 166 168
27 1 290 289 291
28 1 335 334 336
29 1 146 145 147
30 1 383 382 384
31 1 308 307 309
32 1 53 52 54
33 1 326 325 327
34 1 38 37 39
35 1 50 49 51
36 1 131 130 132
37 1 143 142 144
38 1 296 295 297
39 1 218 217 219
40 1 254 253 255
41 1 215 214 216
42 1 5 4 6
43 1 230 229 231
44 1 368 367 369
45 1 233 232 234
46 1 152 151 153
47 1 116 115 117
48 1 35 34 36
49 1 20 19 21
50 1 227 226 228
51 1 47 46 48
52 1 305 304 306
53 1 170 169 171
54 1 248 247 249
55 1 80 79 81
56 1 2 1 3
57 1 122 121 123
58 1 41 40 42
59 1 332 331 333
60 1 209 208 210
61 1 128 127 129
62 1 164 163 165
63 1 344 343 345
64 1 338 337 339
65 1 203 202 204
66 1 11 10 12
67 1 113 112 114
68 1 125 124 126
69 1 134 133 135
70 1 200 199 201
71 1 251 250 252
72 1 56 55 57
73 1 179 178 180
74 1 359 358 360
75 1 161 160 162
76 1 323 322 324
77 1 65 64 66
78 1 275 274 276
79 1 191 190 192
80 1 293 292 294
81 1 374 373 375
82 1 59 58 60
83 1 380 379 381
84 1 23 22 24
85 1 302 301 303
86 1 194 193 195
87 1 8 7 9
88 1 68 67 69
89 1 185 184 186
90 1 95 94 96
91 1 341 340 342
92 1 173 172 174
93 1 377 376 378
94 1 242 241 243
95 1 317 316 318
96 1 266 265 267
97 1 86 85 87
98 1 236 235 237
99 1 176 175 177
100 1 371 370 372
101 1 287 286 288
102 1 284 283 285
103 1 89 88 90
104 1 101 100 102
105 1 62 61 63
106 1 44 43 45
107 1 281 280 282
108 1 83 82 84
109 1 17 16 18
110 1 257 256 258
111 1 245 244 246
112 1 119 118 120
113 1 92 91 93
114 1 29 28 30
115 1 362 361 363
116 1 224 223 225
117 1 197 196 198
118 1 155 154 156
119 1 182 181 183
120 1 278 277 279
121 1 260 259 261
122 1 314 313 315
123 1 353 352 354
124 1 329 328 330
125 1 239 238 240
126 1 77 76 78
127 1 104 103 105
128 1 350 349 351
